{
  "@type": "Indicator",
  "term": {
    "@type": "Term",
    "@id": "damageToHumanHealthWaterStress"
  },
  "methodModel": {
    "@type": "Term",
    "@id": "lcImpactCertainEffects100Years"
  },
  "value": 1.3730076e-9
}
