{
  "id": "fake-cycle",
  "type": "Cycle",
  "functionalUnit": "1 ha",
  "defaultSource": {
    "id": "fake-source",
    "type": "Source"
  },
  "site": {
    "id": "fake-site",
    "type": "Site"
  },
  "startDate": "1968-12",
  "startDateDefinition": "sowing date",
  "endDate": "2008-12",
  "cycleDuration": 182.5,
  "inputs": [
    {
      "term": {
        "@type": "Term",
        "name": "Wheat, grain",
        "termType": "crop",
        "@id": "wheatGrain",
        "units": "kg"
      },
      "value": [
        40
      ],
      "@type": "Input",
      "impactAssessment": {
        "@id": "wheatGrain-australia-2001-2010",
        "@type": "ImpactAssessment"
      },
      "impactAssessmentIsProxy": true
    },
    {
      "term": {
        "@type": "Term",
        "name": "Diesel",
        "termType": "fuel",
        "@id": "diesel",
        "units": "kg"
      },
      "value": [
        18.148
      ],
      "@type": "Input",
      "impactAssessment": {
        "@id": "lepizrv6wt5h",
        "@type": "ImpactAssessment"
      },
      "impactAssessmentIsProxy": true
    },
    {
      "term": {
        "@type": "Term",
        "name": "Herbicide unspecified (AI)",
        "termType": "pesticideAI",
        "@id": "herbicideUnspecifiedAi",
        "units": "kg active ingredient"
      },
      "value": [
        1.8
      ],
      "@type": "Input"
    }
  ],
  "dataPrivate": false,
  "name": "fake cycle",
  "completeness": {
    "electricityFuel": true,
    "material": true,
    "fertiliser": true,
    "other": true,
    "soilAmendments": true,
    "pesticidesAntibiotics": true,
    "water": true,
    "products": true,
    "cropResidue": true,
    "animalFeed": true,
    "@type": "Completeness",
    "transport": false,
    "excreta": true,
    "waste": true,
    "liveAnimals": true,
    "operations": true
  },
  "defaultMethodClassification": "modelled",
  "defaultMethodClassificationDescription": "description"
}
