[
  {
    "term": {
      "@id": "no3ToGroundwaterSoilFlux",
      "@type": "Term"
    },
    "value": [
      144.77860960376955
    ],
    "methodTier": "tier 2",
    "@type": "Emission",
    "methodModel": {
      "@type": "Term",
      "@id": "pooreNemecek2018"
    }
  }
]
