{
  "id": "fake-cycle",
  "type": "Cycle",
  "name": "fake cycle",
  "functionalUnit": "1 ha",
  "defaultSource": {
    "id": "fake-source",
    "type": "Source"
  },
  "dataPrivate": false,
  "site": {
    "id": "fake-site",
    "type": "Site",
    "siteType": "cropland"
  },
  "endDate": "2009",
  "cycleDuration": 365,
  "emissions": [
    {
      "@type": "Emission",
      "term": {
        "@type": "Term",
        "@id": "n2OToAirExcretaDirect"
      },
      "value": [
        1
      ],
      "methodModel": {
        "@type": "Term",
        "@id": "pooreNemecek2018"
      },
      "methodTier": "tier 1"
    }
  ],
  "completeness": {
    "@type": "Completeness",
    "electricityFuel": true,
    "material": true,
    "fertiliser": true,
    "other": true,
    "pesticidesAntibiotics": true,
    "soilAmendments": true,
    "water": true,
    "products": true,
    "cropResidue": true,
    "animalFeed": true,
    "transport": false,
    "excreta": true,
    "waste": true,
    "liveAnimals": true,
    "operations": true
  },
  "defaultMethodClassification": "modelled",
  "defaultMethodClassificationDescription": "description"
}
