{
  "nodes": [
    {
      "@id": "site1",
      "@type": "Site",
      "siteType": "cropland",
      "country": {
        "@type": "Term",
        "termType": "region",
        "name": "France",
        "@id": "GADM-FRA"
      },
      "latitude": 46.47,
      "longitude": 2.94,
      "dataPrivate": true
    },
    {
      "@id": "site2",
      "@type": "Site",
      "siteType": "cropland",
      "country": {
        "@type": "Term",
        "termType": "region",
        "name": "France",
        "@id": "GADM-FRA"
      },
      "latitude": 46.47,
      "longitude": 2.94,
      "dataPrivate": true
    }
  ]
}
