{
  "rasters": [
    {
      "collection": "users/hestiaplatform/T_CLAY",
      "ee_type": "raster",
      "reducer": "mean",
      "name": "clayContent"
    },
    {
      "collection": "users/hestiaplatform/drainage-xy1",
      "ee_type": "raster",
      "reducer": "mode",
      "name": "drainageClass"
    },
    {
      "collection": "users/hestiaplatform/climate_zone",
      "ee_type": "raster",
      "reducer": "mode",
      "name": "ecoClimateZone"
    },
    {
      "collection": "users/hestiaplatform/erodibility",
      "ee_type": "raster",
      "reducer": "mean",
      "name": "erodibility"
    },
    {
      "collection": "users/hestiaplatform/correction_winter-type_precipitation",
      "ee_type": "raster",
      "reducer": "mode",
      "name": "heavyWinterPrecipitation"
    },
    {
      "collection": "users/hestiaplatform/histosols_corrected",
      "ee_type": "raster",
      "reducer": "mean",
      "name": "histosol"
    },
    {
      "collection": "users/hestiaplatform/r_fraction_loss_water",
      "ee_type": "raster",
      "reducer": "mean",
      "name": "nutrientLossToAquaticEnvironment"
    },
    {
      "collection": "users/hestiaplatform/T_OC",
      "ee_type": "raster",
      "reducer": "mean",
      "name": "organicCarbonPerKgSoil"
    },
    {
      "collection": "IDAHO_EPSCOR/TERRACLIMATE",
      "band_name": "pet",
      "ee_type": "raster",
      "reducer": "mean",
      "reducer_annual": "sum",
      "name": "potentialEvapotranspirationAnnual",
      "year": "2019"
    },
    {
      "collection": "IDAHO_EPSCOR/TERRACLIMATE",
      "band_name": "pet",
      "ee_type": "raster",
      "reducer": "mean",
      "reducer_annual": "sum",
      "name": "potentialEvapotranspirationAnnual",
      "year": "2020"
    },
    {
      "collection": "IDAHO_EPSCOR/TERRACLIMATE",
      "band_name": "pet",
      "ee_type": "raster",
      "reducer": "mean",
      "reducer_annual": "sum",
      "reducer_period": "mean",
      "start_date": "1979-01-01",
      "end_date": "2020-12-31",
      "name": "potentialEvapotranspirationLongTermAnnualMean"
    },
    {
      "collection": "ECMWF/ERA5/MONTHLY",
      "band_name": "total_precipitation",
      "ee_type": "raster",
      "reducer": "mean",
      "reducer_annual": "sum",
      "name": "precipitationAnnual",
      "year": "2019"
    },
    {
      "collection": "ECMWF/ERA5/MONTHLY",
      "band_name": "total_precipitation",
      "ee_type": "raster",
      "reducer": "mean",
      "reducer_annual": "sum",
      "name": "precipitationAnnual",
      "year": "2020"
    },
    {
      "collection": "ECMWF/ERA5/MONTHLY",
      "band_name": "total_precipitation",
      "ee_type": "raster",
      "reducer": "mean",
      "reducer_annual": "sum",
      "reducer_period": "mean",
      "start_date": "1979-01-01",
      "end_date": "2020-12-31",
      "name": "precipitationLongTermAnnualMean"
    },
    {
      "collection": "users/hestiaplatform/T_SAND",
      "ee_type": "raster",
      "reducer": "mean",
      "name": "sandContent"
    },
    {
      "collection": "users/hestiaplatform/GMTEDSLOPE",
      "ee_type": "raster",
      "reducer": "mean",
      "name": "slope"
    },
    {
      "collection": "users/hestiaplatform/slope_length_factor",
      "ee_type": "raster",
      "reducer": "mean",
      "name": "slopeLength"
    },
    {
      "collection": "users/hestiaplatform/T_PH_H2O",
      "ee_type": "raster",
      "reducer": "mean",
      "name": "soilPh"
    },
    {
      "collection": "ECMWF/ERA5/MONTHLY",
      "band_name": "mean_2m_air_temperature",
      "ee_type": "raster",
      "reducer": "mean",
      "reducer_annual": "mean",
      "name": "temperatureAnnual",
      "year": "2019"
    },
    {
      "collection": "ECMWF/ERA5/MONTHLY",
      "band_name": "mean_2m_air_temperature",
      "ee_type": "raster",
      "reducer": "mean",
      "reducer_annual": "mean",
      "name": "temperatureAnnual",
      "year": "2020"
    },
    {
      "collection": "ECMWF/ERA5/MONTHLY",
      "band_name": "mean_2m_air_temperature",
      "ee_type": "raster",
      "reducer": "mean",
      "reducer_annual": "mean",
      "reducer_period": "mean",
      "start_date": "1979-01-01",
      "end_date": "2020-12-31",
      "name": "temperatureLongTermAnnualMean"
    },
    {
      "collection": "users/hestiaplatform/T_N",
      "ee_type": "raster",
      "reducer": "mean",
      "name": "totalNitrogenPerKgSoil"
    },
    {
      "collection": "users/hestiaplatform/soil_phosphorus_concentration",
      "ee_type": "raster",
      "reducer": "mean",
      "name": "totalPhosphorusPerKgSoil"
    },
    {
      "collection": "users/hestiaplatform/gebco_2021_tid",
      "ee_type": "raster",
      "reducer": "mean",
      "name": "waterDepth"
    }
  ],
  "vectors": [
    {
      "collection": "users/hestiaplatform/AWARE",
      "ee_type": "vector",
      "fields": "Name",
      "name": "aware"
    },
    {
      "collection": "users/hestiaplatform/Terrestrial_Ecoregions_World",
      "ee_type": "vector",
      "fields": "eco_code",
      "name": "ecoregion"
    }
  ],
  "vectors-with-regions": [
    {
      "collection": "users/hestiaplatform/AWARE",
      "ee_type": "vector",
      "fields": "Name",
      "name": "aware"
    },
    {
      "collection": "users/hestiaplatform/Terrestrial_Ecoregions_World",
      "ee_type": "vector",
      "fields": "eco_code",
      "name": "ecoregion"
    },
    {
      "ee_type": "vector",
      "collection": "users/hestiaplatform/gadm36_1",
      "fields": "GID_1",
      "name": "region"
    }
  ]
}
