{
  "@type": "Indicator",
  "term": {
    "@type": "Term",
    "@id": "damageToResourceAvailability"
  },
  "methodModel": {
    "@type": "Term",
    "@id": "recipe2016Egalitarian"
  },
  "value": 0.00011379310344827585
}
