[
  {
    "@type": "Indicator",
    "term": {
      "@type": "Term",
      "@id": "landOccupationDuringCycle"
    },
    "methodModel": {
      "@type": "Term",
      "@id": "pooreNemecek2018"
    },
    "value": 1.7241379310344827
  }
]
