{
  "id": "fake-cycle",
  "type": "Cycle",
  "functionalUnit": "1 ha",
  "defaultSource": {
    "id": "fake-source",
    "type": "Source"
  },
  "site": {
    "id": "fake-site",
    "type": "Site",
    "country": {
      "@type": "Term",
      "@id": "GADM-AUS",
      "name": "Australia"
    }
  },
  "startDate": "1968-12",
  "startDateDefinition": "sowing date",
  "endDate": "2008-12",
  "cycleDuration": 182.5,
  "inputs": [
    {
      "term": {
        "@type": "Term",
        "name": "Wheat, grain",
        "termType": "crop",
        "@id": "wheatGrain",
        "units": "kg"
      },
      "value": [
        40
      ],
      "@type": "Input"
    },
    {
      "term": {
        "@type": "Term",
        "name": "Diesel",
        "termType": "fuel",
        "@id": "diesel",
        "units": "kg"
      },
      "value": [
        18.148
      ],
      "@type": "Input",
      "operation": {
        "@type": "Term",
        "name": "Harvesting, machine unspecified",
        "termType": "operation",
        "@id": "harvestingMachineUnspecified",
        "units": "hour"
      },
      "impactAssessment": {
        "@id": "lepizrv6wt5h",
        "@type": "ImpactAssessment",
        "name": "Diesel, World, 2017-12-31, Conventional-Non Irrigated"
      },
      "impactAssessmentIsProxy": true
    },
    {
      "term": {
        "@type": "Term",
        "name": "Diesel",
        "termType": "fuel",
        "@id": "diesel",
        "units": "kg"
      },
      "value": [
        10
      ],
      "fromCycle": true,
      "@type": "Input"
    },
    {
      "term": {
        "@type": "Term",
        "name": "Urea (kg N)",
        "termType": "inorganicFertiliser",
        "@id": "ureaKgN",
        "units": "kg N"
      },
      "value": [
        70
      ],
      "@type": "Input",
      "impactAssessment": {
        "@id": "cnnvpxzo86oe",
        "@type": "ImpactAssessment",
        "name": "Urea (kg N), World, 2017-12-31, Conventional-Non Irrigated"
      },
      "impactAssessmentIsProxy": true
    }
  ],
  "dataPrivate": false,
  "name": "fake cycle",
  "completeness": {
    "electricityFuel": true,
    "material": true,
    "fertiliser": true,
    "other": true,
    "soilAmendments": true,
    "pesticidesAntibiotics": true,
    "water": true,
    "products": true,
    "cropResidue": true,
    "animalFeed": true,
    "@type": "Completeness",
    "transport": false,
    "excreta": true,
    "waste": true,
    "liveAnimals": true,
    "operations": true
  },
  "defaultMethodClassification": "modelled",
  "defaultMethodClassificationDescription": "description"
}
