{
  "@type": "Indicator",
  "term": {
    "@type": "Term",
    "@id": "humanDamageOzoneFormation"
  },
  "methodModel": {
    "@type": "Term",
    "@id": "recipe2016Hierarchist"
  },
  "value": 0.0039961335086655175
}
