{
  "id": "fake-impact",
  "type": "ImpactAssessment",
  "allocationMethod": "none required",
  "country": {
    "@id": "GADM-BRA",
    "@type": "Term",
    "name": "Brazil"
  },
  "cycle": {
    "id": "fake-cycle",
    "type": "Cycle",
    "name": "fake cycle",
    "functionalUnit": "1 ha",
    "defaultSource": {
      "id": "fake-source",
      "type": "Source"
    },
    "dataPrivate": false,
    "endDate": "2009",
    "cycleDuration": 365,
    "site": {
      "id": "fake-site",
      "type": "Site",
      "siteType": "forest",
      "country": {
        "@type": "Term",
        "@id": "GADM-BRA"
      },
      "region": {
        "@type": "Term",
        "@id": "GADM-BRA.1_1"
      }
    },
    "practices": [
      {
        "@type": "Practice",
        "term": {
          "@id": "longFallowRatio",
          "@type": "Term",
          "termType": "landUseManagement"
        },
        "value": [
          1
        ]
      }
    ],
    "inputs": [
      {
        "term": {
          "@type": "Term",
          "name": "Wheat, grain",
          "termType": "crop",
          "@id": "wheatGrain",
          "units": "kg"
        },
        "value": [
          40
        ],
        "@type": "Input",
        "impactAssessment": {
          "@id": "wheatGrain-australia-2001-2010",
          "@type": "ImpactAssessment"
        },
        "impactAssessmentIsProxy": true
      },
      {
        "term": {
          "@type": "Term",
          "name": "Diesel",
          "termType": "fuel",
          "@id": "diesel",
          "units": "kg"
        },
        "value": [
          18.148
        ],
        "@type": "Input",
        "impactAssessment": {
          "@id": "lepizrv6wt5h",
          "@type": "ImpactAssessment"
        },
        "impactAssessmentIsProxy": true
      }
    ],
    "completeness": {
      "@type": "Completeness",
      "electricityFuel": true,
      "material": true,
      "fertiliser": true,
      "other": true,
      "pesticidesAntibiotics": true,
      "soilAmendments": true,
      "water": true,
      "products": true,
      "cropResidue": true,
      "animalFeed": true,
      "transport": false,
      "excreta": true,
      "waste": true,
      "liveAnimals": true,
      "operations": true
    },
    "defaultMethodClassificationDescription": "description"
  },
  "endDate": "2010",
  "functionalUnitQuantity": 1,
  "product": {
    "term": {
      "@id": "wheatGrain",
      "termType": "crop",
      "@type": "Term"
    },
    "primary": true,
    "economicValueShare": 100,
    "value": [
      2900
    ],
    "@type": "Product"
  },
  "source": {
    "id": "fake-source",
    "type": "Source"
  },
  "dataPrivate": false
}
