{
  "@id": "fake-cycle",
  "@type": "Cycle",
  "site": {
    "id": "fake-site",
    "type": "Site"
  },
  "functionalUnit": "relative",
  "endDate": "2012",
  "cycleDuration": 270,
  "products": [
    {
      "term": {
        "@type": "Term",
        "termType": "excreta",
        "@id": "excretaPigsKgN",
        "units": "kg N"
      },
      "sd": [
        200,
        100
      ],
      "statsDefinition": "modelled",
      "@type": "Product"
    }
  ],
  "transformations": [
    {
      "transformationId": "tr-1",
      "term": {
        "@type": "Term",
        "name": "Pit storage below animal confinements",
        "termType": "excretaManagement",
        "@id": "pitStorageBelowAnimalConfinements"
      },
      "transformedShare": 50,
      "inputs": [
        {
          "term": {
            "@type": "Term",
            "termType": "excreta",
            "@id": "excretaPigsKgN",
            "units": "kg N"
          },
          "@type": "Input",
          "fromCycle": true
        }
      ],
      "@type": "Transformation"
    }
  ],
  "name": "random cycle",
  "dataPrivate": true,
  "completeness": {
    "electricityFuel": true,
    "material": true,
    "fertiliser": true,
    "other": false,
    "pesticidesAntibiotics": false,
    "soilAmendments": true,
    "water": true,
    "products": true,
    "cropResidue": true,
    "animalFeed": true,
    "transport": true,
    "@type": "Completeness",
    "excreta": true,
    "waste": true,
    "liveAnimals": true,
    "operations": true
  },
  "defaultMethodClassification": "modelled",
  "defaultMethodClassificationDescription": "description"
}
