{
  "@type": "Indicator",
  "term": {
    "@type": "Term",
    "@id": "damageToHumanHealthStratosphericOzoneDepletion"
  },
  "methodModel": {
    "@type": "Term",
    "@id": "lcImpactCertainEffects100Years"
  },
  "value": 2.0275174144128004e-9
}
