{
  "@type": "Indicator",
  "term": {
    "@type": "Term",
    "@id": "marineAquaticEcotoxicityPotential14Dcbeq"
  },
  "methodModel": {
    "@type": "Term",
    "@id": "recipe2016Individualist"
  },
  "value": 0.00029690305755387985
}
