{
  "id": "fake-cycle",
  "type": "Cycle",
  "name": "fake cycle",
  "functionalUnit": "1 ha",
  "defaultSource": {
    "id": "fake-source",
    "type": "Source"
  },
  "dataPrivate": false,
  "endDate": "2009",
  "cycleDuration": 365,
  "site": {
    "id": "fake-site",
    "type": "Site",
    "siteType": "cropland",
    "measurements": [
      {
        "@type": "Measurement",
        "term": {
          "@id": "soilPh",
          "@type": "Term"
        },
        "value": [
          6.7
        ],
        "added": [
          "term",
          "value"
        ],
        "methodClassification": "unsourced assumption"
      }
    ]
  },
  "inputs": [
    {
      "@type": "Input",
      "term": {
        "@id": "seed",
        "@type": "Term"
      },
      "value": [
        10
      ]
    },
    {
      "@type": "Input",
      "term": {
        "@id": "machineryInfrastructureDepreciatedAmountPerCycle",
        "@type": "Term"
      },
      "value": [
        10
      ]
    }
  ],
  "products": [
    {
      "term": {
        "@id": "aboveGroundCropResidueTotal",
        "@type": "Term",
        "name": "Above ground crop residue, total"
      },
      "value": [
        130.68078947368434
      ],
      "@type": "Product"
    },
    {
      "term": {
        "@id": "aboveGroundCropResidueBurnt",
        "@type": "Term",
        "name": "Above ground crop residue, total"
      },
      "value": [
        0
      ],
      "economicValueShare": 0,
      "revenue": 0,
      "currency": "USD",
      "@type": "Product"
    },
    {
      "@type": "Product",
      "term": {
        "@id": "aboveGroundCropResidueRemoved",
        "@type": "Term"
      },
      "value": [
        111.078671526
      ]
    },
    {
      "term": {
        "@id": "aboveGroundCropResidueLeftOnField",
        "@type": "Term",
        "name": "Above ground crop residue, left on field"
      },
      "value": [
        6.534039
      ],
      "@type": "Product"
    },
    {
      "term": {
        "@id": "aboveGroundCropResidueIncorporated",
        "@type": "Term",
        "name": "Above ground crop residue, incorporated"
      },
      "value": [
        13.068078947368434
      ],
      "@type": "Product"
    },
    {
      "term": {
        "@id": "belowGroundCropResidue",
        "@type": "Term",
        "name": "Below ground crop residue"
      },
      "value": [
        1307.744928
      ],
      "@type": "Product"
    }
  ],
  "completeness": {
    "@type": "Completeness",
    "electricityFuel": false,
    "material": false,
    "fertiliser": false,
    "other": false,
    "pesticidesAntibiotics": false,
    "soilAmendments": false,
    "water": false,
    "products": false,
    "cropResidue": false,
    "animalFeed": false,
    "transport": false,
    "excreta": false,
    "waste": true,
    "liveAnimals": true,
    "operations": true
  },
  "defaultMethodClassification": "modelled",
  "defaultMethodClassificationDescription": "description"
}
