[
  {
    "@type": "Emission",
    "term": {
      "@type": "Term",
      "@id": "no3ToGroundwaterCropResidueDecomposition"
    },
    "methodModel": {
      "@type": "Term",
      "@id": "ipcc2019"
    },
    "value": [
      13.279931462840006
    ],
    "min": [
      0.5533304776183336
    ],
    "max": [
      40.39312486613835
    ],
    "sd": [
      9.959948597130005
    ],
    "statsDefinition": "modelled",
    "methodTier": "tier 1"
  }
]
