{
  "@type": "Indicator",
  "term": {
    "@type": "Term",
    "@id": "eutrophicationPotentialIncludingFateAverageEurope"
  },
  "methodModel": {
    "@type": "Term",
    "@id": "cml2001NonBaseline"
  },
  "value": 0.03222209052497448
}
