[
  {
    "term": {
      "@id": "nh3ToAirExcreta",
      "@type": "Term"
    },
    "value": [
      0.0027341737118510645
    ],
    "methodTier": "tier 2",
    "@type": "Emission",
    "methodModel": {
      "@type": "Term",
      "@id": "emepEea2019"
    }
  }
]
