[
  {
    "term": {
      "@id": "nh3ToAirAquacultureSystems",
      "@type": "Term"
    },
    "value": [
      0.015159742128935541
    ],
    "methodTier": "tier 1",
    "@type": "Emission",
    "methodModel": {
      "@type": "Term",
      "@id": "pooreNemecek2018"
    }
  }
]
