{
  "id": "fake-impact",
  "type": "ImpactAssessment",
  "allocationMethod": "none required",
  "country": {
    "@id": "GADM-AUS",
    "@type": "Term",
    "name": "Australia"
  },
  "cycle": {
    "id": "fake-cycle",
    "type": "Cycle",
    "inputs": [
      {
        "@type": "Input",
        "term": {
          "@type": "Term",
          "@id": "wheatGrain",
          "name": "Wheat, grain",
          "termType": "crop"
        }
      },
      {
        "@type": "Input",
        "term": {
          "@type": "Term",
          "@id": "maizeGrain",
          "name": "Maize, grain",
          "termType": "crop"
        }
      }
    ],
    "emissions": [
      {
        "term": {
          "@type": "Term",
          "name": "CO2, to air, soil carbon stock change, management change",
          "termType": "emission",
          "@id": "co2ToAirSoilCarbonStockChangeManagementChange",
          "units": "kg CO2"
        },
        "value": [
          254
        ],
        "methodTier": "measured",
        "methodModel": {
          "@id": "emepEea2019",
          "@type": "Term",
          "name": "EMEA-EEA (2019)",
          "termType": "model"
        },
        "@type": "Emission"
      },
      {
        "term": {
          "@type": "Term",
          "name": "CH4, to air, soil flux",
          "termType": "emission",
          "@id": "ch4ToAirSoilFlux",
          "units": "kg CH4"
        },
        "value": [
          0.16
        ],
        "methodTier": "measured",
        "methodModel": {
          "@type": "Term",
          "name": "Closed chamber, static",
          "termType": "methodEmissionResourceUse",
          "@id": "closedChamberStatic"
        },
        "deleted": true,
        "@type": "Emission"
      },
      {
        "term": {
          "@type": "Term",
          "name": "N2O, to air, inorganic fertiliser, direct",
          "termType": "emission",
          "@id": "n2OToAirInorganicFertiliserDirect",
          "units": "kg N2O"
        },
        "value": [
          0.57383
        ],
        "methodTier": "measured",
        "methodModel": {
          "@type": "Term",
          "name": "Closed chamber, static",
          "termType": "methodEmissionResourceUse",
          "@id": "closedChamberStatic"
        },
        "source": {
          "@id": "d7ehooxvg0",
          "@type": "Source"
        },
        "@type": "Emission"
      },
      {
        "@type": "Emission",
        "term": {
          "@type": "Term",
          "@id": "n2OToAirInorganicFertiliserIndirect",
          "name": "N2O, to air, inorganic fertiliser, indirect",
          "units": "kg N2O",
          "termType": "emission"
        },
        "value": [
          0.202332449
        ],
        "methodTier": "tier 1",
        "methodModel": {
          "@type": "Term",
          "@id": "ipcc2006",
          "name": "IPCC (2006)",
          "termType": "model"
        }
      },
      {
        "term": {
          "@type": "Term",
          "name": "CO2, to air, urea hydrolysis",
          "termType": "emission",
          "@id": "co2ToAirUreaHydrolysis",
          "units": "kg CO2"
        },
        "value": [
          110
        ],
        "methodTier": "tier 1",
        "methodModel": {
          "@id": "emepEea2019",
          "@type": "Term",
          "name": "EMEA-EEA (2019)",
          "termType": "model"
        },
        "@type": "Emission"
      },
      {
        "term": {
          "@type": "Term",
          "name": "N2O, to air, crop residue decomposition, direct",
          "termType": "emission",
          "@id": "n2OToAirCropResidueDecompositionDirect",
          "units": "kg N2O"
        },
        "value": [
          0.02685
        ],
        "methodTier": "measured",
        "methodModel": {
          "@id": "emepEea2019",
          "@type": "Term",
          "name": "EMEA-EEA (2019)",
          "termType": "model"
        },
        "@type": "Emission"
      },
      {
        "@type": "Emission",
        "term": {
          "@type": "Term",
          "@id": "co2ToAirFuelCombustion",
          "name": "CO2, to air, fuel combustion",
          "units": "kg CO2",
          "termType": "emission"
        },
        "value": [
          57.52916
        ],
        "methodTier": "tier 1",
        "methodModel": {
          "@id": "emepEea2019",
          "@type": "Term",
          "name": "EMEA-EEA (2019)",
          "termType": "model"
        }
      },
      {
        "@type": "Emission",
        "term": {
          "@type": "Term",
          "@id": "co2ToAirLimeHydrolysis",
          "name": "CO2, to air, lime hydrolysis",
          "units": "kg CO2",
          "termType": "emission"
        },
        "value": [
          0
        ],
        "methodTier": "tier 1",
        "methodModel": {
          "@type": "Term",
          "@id": "ipcc2006",
          "name": "IPCC (2006)",
          "termType": "model"
        }
      },
      {
        "@type": "Emission",
        "term": {
          "@type": "Term",
          "@id": "n2OToAirFuelCombustionDirect",
          "name": "N2O, to air, fuel combustion",
          "units": "kg N2O",
          "termType": "emission"
        },
        "value": [
          0.002468128
        ],
        "methodTier": "tier 1",
        "methodModel": {
          "@type": "Term",
          "@id": "emepEea2019",
          "name": "EMEA-EEA (2019)",
          "termType": "model"
        }
      },
      {
        "@type": "Emission",
        "term": {
          "@type": "Term",
          "@id": "noxToAirFuelCombustion",
          "name": "NOx, to air, fuel combustion",
          "units": "kg NOx",
          "termType": "emission"
        },
        "value": [
          0.592151092
        ],
        "methodTier": "tier 1",
        "methodModel": {
          "@type": "Term",
          "@id": "emepEea2019",
          "name": "EMEA-EEA (2019)",
          "termType": "model"
        }
      },
      {
        "@type": "Emission",
        "term": {
          "@type": "Term",
          "@id": "so2ToAirFuelCombustion",
          "name": "SO2, to air, fuel combustion",
          "units": "kg SO2",
          "termType": "emission"
        },
        "value": [
          0.036296
        ],
        "methodTier": "tier 1",
        "methodModel": {
          "@type": "Term",
          "@id": "emepEea2019",
          "name": "EMEA-EEA (2019)",
          "termType": "model"
        }
      },
      {
        "@type": "Emission",
        "term": {
          "@type": "Term",
          "@id": "n2OToAirOrganicFertiliserDirect",
          "name": "N2O, to air, organic fertiliser, direct",
          "units": "kg N2O",
          "termType": "emission"
        },
        "value": [
          0
        ],
        "methodTier": "tier 2",
        "methodModel": {
          "@type": "Term",
          "@id": "stehfestBouwman2006",
          "name": "Stehfest & Bouwman (2006)",
          "termType": "model"
        }
      },
      {
        "@type": "Emission",
        "term": {
          "@type": "Term",
          "@id": "n2OToAirCropResidueBurningDirect",
          "name": "N2O, to air, crop residue burning, direct",
          "units": "kg N2O",
          "termType": "emission"
        },
        "value": [
          0.229635
        ],
        "methodTier": "tier 1",
        "methodModel": {
          "@type": "Term",
          "@id": "ipcc2006",
          "name": "IPCC (2006)",
          "termType": "model"
        }
      },
      {
        "@type": "Emission",
        "term": {
          "@type": "Term",
          "@id": "n2OToAirExcretaDirect",
          "name": "N2O, to air, excreta, direct",
          "units": "kg N2O",
          "termType": "emission"
        },
        "value": [
          0
        ],
        "methodTier": "tier 2",
        "methodModel": {
          "@type": "Term",
          "@id": "stehfestBouwman2006",
          "name": "Stehfest & Bouwman (2006)",
          "termType": "model"
        }
      },
      {
        "@type": "Emission",
        "term": {
          "@type": "Term",
          "@id": "nh3ToAirCropResidueBurning",
          "name": "NH3, to air, crop residue burning",
          "units": "kg NH3",
          "termType": "emission"
        },
        "value": [
          7.118685
        ],
        "methodTier": "tier 1",
        "methodModel": {
          "@type": "Term",
          "@id": "ipcc2006",
          "name": "IPCC (2006)",
          "termType": "model"
        }
      },
      {
        "@type": "Emission",
        "term": {
          "@type": "Term",
          "@id": "nh3ToAirCropResidueDecomposition",
          "name": "NH3, to air, crop residue decomposition",
          "units": "kg NH3",
          "termType": "emission"
        },
        "value": [
          0
        ],
        "methodTier": "tier 1",
        "methodModel": {
          "@type": "Term",
          "@id": "deRuijterEtAl2010",
          "name": "de Ruijter et al (2010)",
          "termType": "model"
        }
      },
      {
        "@type": "Emission",
        "term": {
          "@type": "Term",
          "@id": "nh3ToAirInorganicFertiliser",
          "name": "NH3, to air, inorganic fertiliser",
          "units": "kg NH3",
          "termType": "emission"
        },
        "value": [
          11.13
        ],
        "methodTier": "tier 1",
        "methodModel": {
          "@type": "Term",
          "@id": "europeanEnvironmentAgency2016",
          "name": "European Environment Agency (2016)",
          "termType": "model"
        }
      },
      {
        "@type": "Emission",
        "term": {
          "@type": "Term",
          "@id": "nh3ToAirOrganicFertiliser",
          "name": "NH3, to air, organic fertiliser",
          "units": "kg NH3",
          "termType": "emission"
        },
        "value": [
          0
        ],
        "methodTier": "tier 1",
        "methodModel": {
          "@type": "Term",
          "@id": "webbEtAl2012AndSintermannEtAl2012",
          "name": "Webb et al (2012) and Sintermann et al (2012)",
          "termType": "model"
        }
      },
      {
        "@type": "Emission",
        "term": {
          "@type": "Term",
          "@id": "no3ToGroundwaterInorganicFertiliser",
          "name": "NO3, to groundwater, inorganic fertiliser",
          "units": "kg NO3",
          "termType": "emission"
        },
        "value": [
          20.76095952
        ],
        "methodTier": "tier 2",
        "methodModel": {
          "@type": "Term",
          "@id": "pooreNemecek2018",
          "name": "Poore & Nemecek (2018)",
          "termType": "model"
        }
      },
      {
        "@type": "Emission",
        "term": {
          "@type": "Term",
          "@id": "no3ToGroundwaterOrganicFertiliser",
          "name": "NO3, to groundwater, organic fertiliser",
          "units": "kg NO3",
          "termType": "emission"
        },
        "value": [
          0
        ],
        "methodTier": "tier 2",
        "methodModel": {
          "@type": "Term",
          "@id": "pooreNemecek2018",
          "name": "Poore & Nemecek (2018)",
          "termType": "model"
        }
      },
      {
        "@type": "Emission",
        "term": {
          "@type": "Term",
          "@id": "no3ToGroundwaterExcreta",
          "name": "NO3, to groundwater, excreta",
          "units": "kg NO3",
          "termType": "emission"
        },
        "value": [
          0
        ],
        "methodTier": "tier 2",
        "methodModel": {
          "@type": "Term",
          "@id": "pooreNemecek2018",
          "name": "Poore & Nemecek (2018)",
          "termType": "model"
        }
      },
      {
        "@type": "Emission",
        "term": {
          "@type": "Term",
          "@id": "no3ToGroundwaterCropResidueDecomposition",
          "name": "NO3, to groundwater, crop residue decomposition",
          "units": "kg NO3",
          "termType": "emission"
        },
        "value": [
          0.7567369745
        ],
        "methodTier": "tier 2",
        "methodModel": {
          "@type": "Term",
          "@id": "pooreNemecek2018",
          "name": "Poore & Nemecek (2018)",
          "termType": "model"
        }
      },
      {
        "@type": "Emission",
        "term": {
          "@type": "Term",
          "@id": "noxToAirCropResidueDecomposition",
          "name": "NOx, to air, crop residue decomposition",
          "units": "kg NOx",
          "termType": "emission"
        },
        "value": [
          0.01616809903
        ],
        "methodTier": "tier 2",
        "methodModel": {
          "@type": "Term",
          "@id": "stehfestBouwman2006",
          "name": "Stehfest & Bouwman (2006)",
          "termType": "model"
        }
      },
      {
        "@type": "Emission",
        "term": {
          "@type": "Term",
          "@id": "noxToAirInorganicFertiliser",
          "name": "NOx, to air, inorganic fertiliser",
          "units": "kg NOx",
          "termType": "emission"
        },
        "value": [
          0.4435692464
        ],
        "methodTier": "tier 2",
        "methodModel": {
          "@type": "Term",
          "@id": "stehfestBouwman2006",
          "name": "Stehfest & Bouwman (2006)",
          "termType": "model"
        }
      },
      {
        "@type": "Emission",
        "term": {
          "@type": "Term",
          "@id": "noxToAirOrganicFertiliser",
          "name": "NOx, to air, organic fertiliser",
          "units": "kg NOx",
          "termType": "emission"
        },
        "value": [
          0
        ],
        "methodTier": "tier 2",
        "methodModel": {
          "@type": "Term",
          "@id": "stehfestBouwman2006",
          "name": "Stehfest & Bouwman (2006)",
          "termType": "model"
        }
      },
      {
        "@type": "Emission",
        "term": {
          "@type": "Term",
          "@id": "noxToAirExcreta",
          "name": "NOx, to air, excreta",
          "units": "kg NOx",
          "termType": "emission"
        },
        "value": [
          0
        ],
        "methodTier": "tier 2",
        "methodModel": {
          "@type": "Term",
          "@id": "stehfestBouwman2006",
          "name": "Stehfest & Bouwman (2006)",
          "termType": "model"
        }
      },
      {
        "@type": "Emission",
        "term": {
          "@type": "Term",
          "@id": "noxToAirCropResidueBurning",
          "name": "NOx, to air, crop residue burning",
          "units": "kg NOx",
          "termType": "emission"
        },
        "value": [
          10.202355
        ],
        "methodTier": "tier 1",
        "methodModel": {
          "@type": "Term",
          "@id": "ipcc2006",
          "name": "IPCC (2006)",
          "termType": "model"
        }
      },
      {
        "@type": "Emission",
        "term": {
          "@type": "Term",
          "@id": "ch4ToAirCropResidueBurning",
          "name": "CH4, to air, crop residue burning",
          "units": "kg CH4",
          "termType": "emission"
        },
        "value": [
          19.09251
        ],
        "methodTier": "tier 1",
        "methodModel": {
          "@type": "Term",
          "@id": "ipcc2006",
          "name": "IPCC (2006)",
          "termType": "model"
        }
      },
      {
        "@type": "Emission",
        "term": {
          "@type": "Term",
          "@id": "nh3ToAirInputsProduction",
          "name": "NH3, to air, inputs production",
          "units": "kg NH3",
          "termType": "emission"
        },
        "value": [
          0.2484121889
        ],
        "methodTier": "background",
        "inputs": [],
        "methodModel": {
          "@type": "Term",
          "@id": "ecoinventV3",
          "name": "ecoinvent v3",
          "termType": "model"
        }
      },
      {
        "@type": "Emission",
        "term": {
          "@type": "Term",
          "@id": "co2ToAirInputsProduction",
          "name": "CO2, to air, inputs production",
          "units": "kg CO2",
          "termType": "emission"
        },
        "value": [
          229.3856767
        ],
        "methodTier": "background",
        "inputs": [],
        "methodModel": {
          "@type": "Term",
          "@id": "ecoinventV3",
          "name": "ecoinvent v3",
          "termType": "model"
        }
      },
      {
        "@type": "Emission",
        "term": {
          "@type": "Term",
          "@id": "n2OToAirInputsProduction",
          "name": "N2O, to air, inputs production",
          "units": "kg N2O",
          "termType": "emission"
        },
        "value": [
          0.004439130352
        ],
        "methodTier": "background",
        "inputs": [],
        "methodModel": {
          "@type": "Term",
          "@id": "ecoinventV3",
          "name": "ecoinvent v3",
          "termType": "model"
        }
      },
      {
        "@type": "Emission",
        "term": {
          "@type": "Term",
          "@id": "ch4ToAirInputsProductionFossil",
          "name": "CH4, to air, inputs production, fossil",
          "units": "kg CH4",
          "termType": "emission"
        },
        "value": [
          0.6457535935
        ],
        "methodTier": "background",
        "inputs": [],
        "methodModel": {
          "@type": "Term",
          "@id": "ecoinventV3",
          "name": "ecoinvent v3",
          "termType": "model"
        }
      },
      {
        "@type": "Emission",
        "term": {
          "@type": "Term",
          "@id": "ch4ToAirInputsProductionNonFossil",
          "name": "CH4, to air, inputs production, non-fossil",
          "units": "kg CH4",
          "termType": "emission"
        },
        "value": [
          0.003386760505
        ],
        "methodTier": "background",
        "inputs": [],
        "methodModel": {
          "@type": "Term",
          "@id": "ecoinventV3",
          "name": "ecoinvent v3",
          "termType": "model"
        }
      },
      {
        "@type": "Emission",
        "term": {
          "@type": "Term",
          "@id": "noxToAirInputsProduction",
          "name": "NOx, to air, inputs production",
          "units": "kg NOx",
          "termType": "emission"
        },
        "value": [
          0.3345437377
        ],
        "methodTier": "background",
        "inputs": [],
        "methodModel": {
          "@type": "Term",
          "@id": "ecoinventV3",
          "name": "ecoinvent v3",
          "termType": "model"
        }
      },
      {
        "@type": "Emission",
        "term": {
          "@type": "Term",
          "@id": "so2ToAirInputsProduction",
          "name": "SO2, to air, inputs production",
          "units": "kg SO2",
          "termType": "emission"
        },
        "value": [
          0.6
        ],
        "methodTier": "background",
        "inputs": [
          {
            "@type": "Term",
            "@id": "wheatGrain",
            "name": "Wheat, grain",
            "termType": "crop"
          }
        ],
        "methodModel": {
          "@type": "Term",
          "@id": "ecoinventV3",
          "name": "ecoinvent v3",
          "termType": "model"
        }
      },
      {
        "@type": "Emission",
        "term": {
          "@type": "Term",
          "@id": "so2ToAirInputsProduction",
          "name": "SO2, to air, inputs production",
          "units": "kg SO2",
          "termType": "emission"
        },
        "value": [
          1.2
        ],
        "methodTier": "background",
        "inputs": [
          {
            "@type": "Term",
            "@id": "maizeGrain",
            "name": "Maize, grain",
            "termType": "crop"
          }
        ],
        "methodModel": {
          "@type": "Term",
          "@id": "ecoinventV3",
          "name": "ecoinvent v3",
          "termType": "model"
        }
      },
      {
        "@type": "Emission",
        "term": {
          "@type": "Term",
          "@id": "so2ToAirInputsProduction",
          "name": "SO2, to air, inputs production",
          "units": "kg SO2",
          "termType": "emission"
        },
        "value": [
          1.8
        ],
        "startDate": "2009",
        "methodTier": "background",
        "inputs": [],
        "methodModel": {
          "@type": "Term",
          "@id": "ecoinventV3",
          "name": "ecoinvent v3",
          "termType": "model"
        }
      },
      {
        "@type": "Emission",
        "term": {
          "@type": "Term",
          "@id": "so2ToAirInputsProduction",
          "name": "SO2, to air, inputs production",
          "units": "kg SO2",
          "termType": "emission"
        },
        "value": [
          1.8
        ],
        "startDate": "2010",
        "methodTier": "tier 1",
        "inputs": [],
        "methodModel": {
          "@type": "Term",
          "@id": "salca",
          "name": "SALCA",
          "termType": "model"
        }
      },
      {
        "@type": "Emission",
        "term": {
          "@type": "Term",
          "@id": "bromochlorodifluoromethaneToAirInputsProduction",
          "name": "Bromochlorodifluoromethane, to air, inputs production",
          "units": "kg CBrClF2",
          "termType": "emission"
        },
        "value": [
          9.621016296e-7
        ],
        "methodTier": "background",
        "inputs": [],
        "methodModel": {
          "@type": "Term",
          "@id": "ecoinventV3",
          "name": "ecoinvent v3",
          "termType": "model"
        }
      },
      {
        "@type": "Emission",
        "term": {
          "@type": "Term",
          "@id": "chlorodifluoromethaneToAirInputsProduction",
          "name": "Chlorodifluoromethane, to air, inputs production",
          "units": "kg CHClF2",
          "termType": "emission"
        },
        "value": [
          0.000004416502025
        ],
        "methodTier": "background",
        "inputs": [],
        "methodModel": {
          "@type": "Term",
          "@id": "ecoinventV3",
          "name": "ecoinvent v3",
          "termType": "model"
        }
      },
      {
        "@type": "Emission",
        "term": {
          "@type": "Term",
          "@id": "dichlorodifluoromethaneToAirInputsProduction",
          "name": "Dichlorodifluoromethane, to air, inputs production",
          "units": "kg CCl2F2",
          "termType": "emission"
        },
        "value": [
          1.372411876e-8
        ],
        "methodTier": "background",
        "inputs": [],
        "methodModel": {
          "@type": "Term",
          "@id": "ecoinventV3",
          "name": "ecoinvent v3",
          "termType": "model"
        }
      },
      {
        "@type": "Emission",
        "term": {
          "@type": "Term",
          "@id": "112TrichlorotrifluoroethaneToAirInputsProduction",
          "name": "1,1,2-Trichlorotrifluoroethane, to air, inputs production",
          "units": "kg C2Cl3F3",
          "termType": "emission"
        },
        "value": [
          2.480340952e-8
        ],
        "methodTier": "background",
        "inputs": [],
        "methodModel": {
          "@type": "Term",
          "@id": "ecoinventV3",
          "name": "ecoinvent v3",
          "termType": "model"
        }
      },
      {
        "@type": "Emission",
        "term": {
          "@type": "Term",
          "@id": "11DichlorotetrafluoroethaneToAirInputsProduction",
          "name": "1,1-Dichlorotetrafluoroethane, to air, inputs production",
          "units": "kg C2Cl2F4",
          "termType": "emission"
        },
        "value": [
          5.700319719e-7
        ],
        "methodTier": "background",
        "inputs": [],
        "methodModel": {
          "@type": "Term",
          "@id": "ecoinventV3",
          "name": "ecoinvent v3",
          "termType": "model"
        }
      },
      {
        "@type": "Emission",
        "term": {
          "@type": "Term",
          "@id": "1112TetrafluoroethaneToAirInputsProduction",
          "name": "1,1,1,2-Tetrafluoroethane, to air, inputs production",
          "units": "kg C2H2F4",
          "termType": "emission"
        },
        "value": [
          2.806613334e-8
        ],
        "methodTier": "background",
        "inputs": [],
        "methodModel": {
          "@type": "Term",
          "@id": "ecoinventV3",
          "name": "ecoinvent v3",
          "termType": "model"
        }
      },
      {
        "@type": "Emission",
        "term": {
          "@type": "Term",
          "@id": "pErosionSoilFlux",
          "name": "P, erosion, soil flux",
          "units": "kg P",
          "termType": "emission"
        },
        "value": [
          0.1596603221
        ],
        "methodTier": "tier 1",
        "methodModel": {
          "@type": "Term",
          "@id": "schererPfister2015",
          "name": "Scherer & Pfister (2015)",
          "termType": "model"
        }
      },
      {
        "@type": "Emission",
        "term": {
          "@type": "Term",
          "@id": "pToGroundwaterSoilFlux",
          "name": "P, to groundwater, soil flux",
          "units": "kg P",
          "termType": "emission"
        },
        "value": [
          0
        ],
        "methodTier": "tier 1",
        "methodModel": {
          "@type": "Term",
          "@id": "salca",
          "name": "SALCA",
          "termType": "model"
        }
      },
      {
        "@type": "Emission",
        "term": {
          "@type": "Term",
          "@id": "pToSurfaceWaterSoilFlux",
          "name": "P, to surface water, soil flux",
          "units": "kg P",
          "termType": "emission"
        },
        "value": [
          1
        ],
        "methodTier": "tier 1",
        "methodModel": {
          "@type": "Term",
          "@id": "salca",
          "name": "SALCA",
          "termType": "model"
        }
      },
      {
        "@type": "Emission",
        "term": {
          "@type": "Term",
          "@id": "pToDrainageWaterSoilFlux",
          "name": "P, to drainage water, soil flux",
          "units": "kg P",
          "termType": "emission"
        },
        "value": [
          0.42
        ],
        "methodTier": "tier 1",
        "methodModel": {
          "@type": "Term",
          "@id": "salca",
          "name": "SALCA",
          "termType": "model"
        }
      },
      {
        "@type": "Emission",
        "term": {
          "@type": "Term",
          "@id": "nErosionSoilFlux",
          "name": "N, erosion, soil flux",
          "units": "kg N",
          "termType": "emission"
        },
        "value": [
          0.2892120607
        ],
        "methodTier": "tier 1",
        "methodModel": {
          "@type": "Term",
          "@id": "schererPfister2015",
          "name": "Scherer & Pfister (2015)",
          "termType": "model"
        }
      },
      {
        "@type": "Emission",
        "term": {
          "@type": "Term",
          "@id": "n2OToAirOrganicFertiliserIndirect",
          "name": "N2O, to air, organic fertiliser, indirect",
          "units": "kg N2O",
          "termType": "emission"
        },
        "value": [
          0
        ],
        "methodTier": "tier 1",
        "methodModel": {
          "@type": "Term",
          "@id": "ipcc2006",
          "name": "IPCC (2006)",
          "termType": "model"
        }
      },
      {
        "@type": "Emission",
        "term": {
          "@type": "Term",
          "@id": "n2OToAirExcretaIndirect",
          "name": "N2O, to air, excreta, indirect",
          "units": "kg N2O",
          "termType": "emission"
        },
        "value": [
          0
        ],
        "methodTier": "tier 1",
        "methodModel": {
          "@type": "Term",
          "@id": "ipcc2006",
          "name": "IPCC (2006)",
          "termType": "model"
        }
      },
      {
        "@type": "Emission",
        "term": {
          "@type": "Term",
          "@id": "n2OToAirCropResidueDecompositionIndirect",
          "name": "N2O, to air, crop residue decomposition, indirect",
          "units": "kg N2O",
          "termType": "emission"
        },
        "value": [
          0.002132939218
        ],
        "methodTier": "tier 1",
        "methodModel": {
          "@type": "Term",
          "@id": "ipcc2006",
          "name": "IPCC (2006)",
          "termType": "model"
        }
      },
      {
        "@type": "Emission",
        "term": {
          "@type": "Term",
          "@id": "po43ToGroundwaterInorganicFertiliser",
          "name": "PO43-, to groundwater, inorganic fertiliser",
          "units": "kg PO43-",
          "termType": "emission"
        },
        "value": [
          0.123
        ],
        "methodTier": "tier 1",
        "methodModel": {
          "@type": "Term",
          "@id": "ipcc2006",
          "name": "IPCC (2006)",
          "termType": "model"
        }
      },
      {
        "@type": "Emission",
        "term": {
          "@type": "Term",
          "@id": "pm25ToAirFuelCombustion",
          "termType": "emission"
        },
        "value": [
          0.123
        ],
        "methodTier": "tier 1",
        "methodModel": {
          "@type": "Term",
          "@id": "ipcc2006",
          "name": "IPCC (2006)",
          "termType": "model"
        }
      }
    ],
    "defaultMethodClassificationDescription": "description"
  },
  "endDate": "2010",
  "functionalUnitQuantity": 1,
  "product": {
    "term": {
      "@type": "Term",
      "name": "Cereals, grain",
      "termType": "crop",
      "@id": "cerealGrain",
      "units": "kg"
    },
    "description": "Wheat, grain; Barley, grain",
    "value": [
      2900
    ],
    "economicValueShare": 100,
    "primary": true,
    "@type": "Product"
  },
  "source": {
    "id": "fake-source",
    "type": "Source"
  },
  "dataPrivate": false
}
