[
  {
    "@type": "Measurement",
    "term": {
      "@type": "Term",
      "@id": "organicCarbonPerHa"
    },
    "value": [
      120900
    ],
    "depthUpper": 0,
    "depthLower": 30,
    "methodClassification": "modelled using other physical measurements"
  }
]
