{
  "id": "fake-cycle",
  "type": "Cycle",
  "name": "fake cycle",
  "functionalUnit": "1 ha",
  "defaultSource": {
    "id": "fake-source",
    "type": "Source"
  },
  "dataPrivate": false,
  "endDate": "2009",
  "cycleDuration": 365,
  "site": {
    "id": "fake-site",
    "type": "Site",
    "country": {
      "@id": "GADM-BRA",
      "@type": "Term",
      "name": "Brazil",
      "termType": "region"
    },
    "siteType": "cropland"
  },
  "inputs": [
    {
      "term": {
        "@id": "diesel",
        "@type": "Term"
      },
      "value": [
        32.96
      ],
      "@type": "Input"
    },
    {
      "term": {
        "@id": "manureFreshKgMass",
        "@type": "Term"
      },
      "value": [
        384.53
      ],
      "@type": "Input"
    },
    {
      "term": {
        "@id": "beefCattleSolidManureFreshKgN",
        "@type": "Term"
      },
      "value": [
        0.00208
      ],
      "@type": "Input"
    }
  ],
  "completeness": {
    "@type": "Completeness",
    "electricityFuel": true,
    "material": false,
    "fertiliser": true,
    "other": true,
    "pesticidesAntibiotics": true,
    "soilAmendments": true,
    "water": true,
    "products": true,
    "cropResidue": true,
    "animalFeed": true,
    "transport": false,
    "excreta": true,
    "waste": true,
    "liveAnimals": true,
    "operations": true
  },
  "defaultMethodClassification": "modelled",
  "defaultMethodClassificationDescription": "description"
}
