[
  {
    "term": {
      "@id": "n2OToAirOrganicSoilCultivationDirect",
      "@type": "Term"
    },
    "value": [
      0.001508263011351467
    ],
    "methodTier": "tier 1",
    "@type": "Emission",
    "methodModel": {
      "@type": "Term",
      "@id": "ipcc2006"
    }
  }
]
