{
  "id": "fake-id",
  "type": "Cycle",
  "name": "fake cycle",
  "functionalUnit": "1 ha",
  "defaultSource": {
    "id": "fake-id",
    "type": "Source"
  },
  "dataPrivate": false,
  "endDate": "2009",
  "cycleDuration": 365,
  "site": {
    "id": "fake-id",
    "type": "Site",
    "country": {
      "@type": "Term",
      "@id": "GADM-GBR",
      "termType": "region"
    }
  },
  "products": [
    {
      "term": {
        "@type": "Term",
        "@id": "meatBeefCattleColdDressedCarcassWeight",
        "name": "Meat, beef cattle (cold dressed carcass weight)",
        "termType": "animalProduct",
        "units": "kg cold dressed carcass weight"
      },
      "primary": true,
      "@type": "Product"
    }
  ],
  "completeness": {
    "@type": "Completeness",
    "electricityFuel": true,
    "material": true,
    "fertiliser": true,
    "other": false,
    "pesticidesAntibiotics": true,
    "soilAmendments": true,
    "water": true,
    "products": true,
    "cropResidue": true,
    "animalFeed": true,
    "transport": false,
    "excreta": true,
    "waste": true,
    "liveAnimals": true,
    "operations": true
  },
  "defaultMethodClassification": "modelled",
  "defaultMethodClassificationDescription": "description"
}
