[
  {
    "@type": "Measurement",
    "term": {
      "@type": "Term",
      "@id": "netPrimaryProduction"
    },
    "value": [
      4
    ],
    "methodClassification": "modelled using other physical measurements"
  }
]
