{
  "id": "fake-cycle",
  "type": "Cycle",
  "name": "fake cycle",
  "functionalUnit": "1 ha",
  "defaultSource": {
    "id": "fake-source",
    "type": "Source"
  },
  "dataPrivate": false,
  "endDate": "2009",
  "cycleDuration": 365,
  "site": {
    "id": "fake-site",
    "type": "Site",
    "siteType": "cropland",
    "country": {
      "@type": "Term",
      "@id": "GADM-AUS",
      "termType": "region"
    }
  },
  "inputs": [
    {
      "term": {
        "@type": "Term",
        "name": "Urea (kg N)",
        "termType": "inorganicFertiliser",
        "@id": "ureaKgN",
        "units": "kg N"
      },
      "value": [
        70
      ],
      "@type": "Input"
    },
    {
      "term": {
        "@type": "Term",
        "name": "Manure, fresh (kg N)",
        "termType": "organicFertiliser",
        "@id": "manureFreshKgN",
        "units": "kg N"
      },
      "value": [
        54
      ],
      "@type": "Input"
    }
  ],
  "products": [
    {
      "@type": "Product",
      "term": {
        "@type": "Term",
        "name": "Excreta, dairy cattle (kg N)",
        "termType": "excreta",
        "@id": "excretaDairyCattleKgN",
        "units": "kg N"
      },
      "value": [
        70
      ]
    },
    {
      "@type": "Product",
      "term": {
        "@id": "belowGroundCropResidue",
        "@type": "Term"
      },
      "value": [
        1360.3425
      ],
      "properties": [
        {
          "term": {
            "@type": "Term",
            "@id": "nitrogenContent",
            "units": "%"
          },
          "value": 0,
          "@type": "Property"
        }
      ]
    },
    {
      "@type": "Product",
      "term": {
        "@id": "aboveGroundCropResidueTotal",
        "@type": "Term"
      },
      "properties": [
        {
          "term": {
            "@type": "Term",
            "@id": "nitrogenContent",
            "units": "%"
          },
          "value": 0.7,
          "@type": "Property"
        }
      ],
      "value": [
        3645
      ]
    },
    {
      "@type": "Product",
      "term": {
        "@type": "Term",
        "@id": "aboveGroundCropResidueLeftOnField"
      },
      "value": [
        364.5
      ]
    }
  ],
  "completeness": {
    "@type": "Completeness",
    "electricityFuel": true,
    "material": true,
    "fertiliser": true,
    "other": true,
    "pesticidesAntibiotics": true,
    "soilAmendments": true,
    "water": true,
    "products": true,
    "cropResidue": true,
    "animalFeed": true,
    "transport": false,
    "excreta": true,
    "waste": true,
    "liveAnimals": true,
    "operations": true
  },
  "defaultMethodClassification": "modelled",
  "defaultMethodClassificationDescription": "description"
}
