{
  "id": "fake-cycle",
  "type": "Cycle",
  "dataPrivate": false,
  "site": {
    "id": "fake-site",
    "type": "Site",
    "siteType": "lake",
    "measurements": [
      {
        "term": {
          "@id": "netPrimaryProduction",
          "name": "Net Primary Production",
          "@type": "Term",
          "termType": "measurement"
        },
        "value": [
          4
        ],
        "@type": "Measurement",
        "methodClassification": "unsourced assumption"
      }
    ]
  },
  "defaultSource": {
    "id": "fake-source",
    "type": "Source"
  },
  "functionalUnit": "relative",
  "endDate": "2012",
  "cycleDuration": 210,
  "inputs": [
    {
      "term": {
        "@type": "Term",
        "name": "Concentrate feed, unspecified",
        "termType": "crop",
        "@id": "concentrateFeedUnspecified",
        "units": "kg"
      },
      "value": [
        1.7
      ],
      "properties": [
        {
          "term": {
            "@type": "Term",
            "name": "Carbon content",
            "termType": "property",
            "@id": "carbonContent",
            "units": "%"
          },
          "value": 0,
          "@type": "Property"
        },
        {
          "term": {
            "@type": "Term",
            "name": "Crude protein content",
            "termType": "property",
            "@id": "crudeProteinContent",
            "units": "%"
          },
          "value": 30,
          "@type": "Property"
        },
        {
          "term": {
            "@type": "Term",
            "name": "Energy content (higher heating value)",
            "termType": "property",
            "@id": "energyContentHigherHeatingValue",
            "units": "MJ / kg"
          },
          "value": 16.37406,
          "@type": "Property"
        }
      ],
      "isAnimalFeed": true,
      "@type": "Input"
    }
  ],
  "practices": [
    {
      "term": {
        "@type": "Term",
        "name": "Semi-intensive system (aquaculture)",
        "termType": "aquacultureManagement",
        "@id": "semiIntensiveSystemAquaculture"
      },
      "@type": "Practice"
    },
    {
      "term": {
        "@id": "yieldOfPrimaryAquacultureProductLiveweightPerM2",
        "name": "Yield of primary aquaculture product (liveweight per m2)",
        "@type": "Term",
        "termType": "aquacultureManagement"
      },
      "value": [
        1.5
      ],
      "@type": "Practice"
    },
    {
      "term": {
        "@type": "Term",
        "name": "Slaughter age",
        "termType": "animalManagement",
        "@id": "slaughterAge"
      },
      "value": [
        213.0625
      ],
      "@type": "Practice"
    }
  ],
  "products": [
    {
      "term": {
        "@type": "Term",
        "name": "Tilapia, unspecified",
        "termType": "liveAquaticSpecies",
        "@id": "tilapiaUnspecified",
        "units": "kg liveweight"
      },
      "value": [
        1
      ],
      "primary": true,
      "@type": "Product"
    }
  ],
  "completeness": {
    "electricityFuel": true,
    "material": true,
    "fertiliser": true,
    "other": false,
    "pesticidesAntibiotics": false,
    "soilAmendments": true,
    "water": true,
    "products": true,
    "cropResidue": true,
    "animalFeed": true,
    "@type": "Completeness",
    "transport": false,
    "excreta": true,
    "waste": true,
    "liveAnimals": true,
    "operations": true
  },
  "defaultMethodClassification": "modelled",
  "defaultMethodClassificationDescription": "description"
}
