{
  "@type": "Indicator",
  "term": {
    "@type": "Term",
    "@id": "damageToHumanHealthHumanToxicityNonCancerogenic"
  },
  "methodModel": {
    "@type": "Term",
    "@id": "lcImpactAllEffectsInfinite"
  },
  "value": 1.067938666895526e-8
}
