{
  "type": "ImpactAssessment",
  "id": "impact-1",
  "cycle": {
    "type": "Cycle",
    "id": "cycle-2",
    "defaultMethodClassificationDescription": "description"
  },
  "product": {
    "@type": "Product",
    "term": {
      "@id": "wheatGrain",
      "@type": "Term"
    }
  },
  "country": {
    "@type": "Term",
    "@id": "GADM-GBR"
  },
  "allocationMethod": "none required",
  "endDate": "2008",
  "functionalUnitQuantity": 1,
  "dataPrivate": true
}
