[
  {
    "@type": "Cycle",
    "@id": "cycle_1983",
    "endDate": "1983-12-31",
    "products": [
      {
        "@type": "Product",
        "term": {
          "@type": "Term",
          "@id": "aboveGroundCropResidueLeftOnField",
          "termType": "cropResidue"
        },
        "value": [
          3430
        ],
        "properties": [
          {
            "@type": "Property",
            "term": {
              "@type": "Term",
              "@id": "carbonContent",
              "termType": "property"
            },
            "value": 50
          },
          {
            "@type": "Property",
            "term": {
              "@type": "Term",
              "@id": "nitrogenContent",
              "termType": "property"
            },
            "value": 2.1
          },
          {
            "@type": "Property",
            "term": {
              "@type": "Term",
              "@id": "ligninContent",
              "termType": "property"
            },
            "value": 11.1
          }
        ]
      },
      {
        "@type": "Product",
        "term": {
          "@type": "Term",
          "@id": "belowGroundCropResidue",
          "termType": "cropResidue"
        },
        "value": [
          3430
        ],
        "properties": [
          {
            "@type": "Property",
            "term": {
              "@type": "Term",
              "@id": "carbonContent",
              "termType": "property"
            },
            "value": 50
          },
          {
            "@type": "Property",
            "term": {
              "@type": "Term",
              "@id": "nitrogenContent",
              "termType": "property"
            },
            "value": 2.1
          },
          {
            "@type": "Property",
            "term": {
              "@type": "Term",
              "@id": "ligninContent",
              "termType": "property"
            },
            "value": 11.1
          }
        ]
      }
    ],
    "site": {
      "@type": "Site",
      "@id": "site"
    },
    "functionalUnit": "1 ha",
    "defaultMethodClassification": "modelled",
    "defaultMethodClassificationDescription": "fake cycle for testing purpose",
    "completeness": {
      "@type": "Completeness",
      "operations": false,
      "electricityFuel": false,
      "material": false,
      "transport": false,
      "fertiliser": false,
      "soilAmendments": true,
      "pesticidesAntibiotics": false,
      "water": true,
      "animalFeed": true,
      "liveAnimals": true,
      "other": false,
      "products": true,
      "cropResidue": true,
      "excreta": false,
      "waste": false
    },
    "dataPrivate": true,
    "startDate": "1959-01-01",
    "startDateDefinition": "first bearing year",
    "inputs": [
      {
        "@type": "Input",
        "term": {
          "@type": "Term",
          "@id": "manureDryKgMass",
          "termType": "organicFertiliser"
        },
        "value": [
          2000
        ],
        "properties": [
          {
            "@type": "Property",
            "term": {
              "@type": "Term",
              "@id": "carbonContent",
              "termType": "property"
            },
            "value": 60
          },
          {
            "@type": "Property",
            "term": {
              "@type": "Term",
              "@id": "nitrogenContent",
              "termType": "property"
            },
            "value": 3.5
          },
          {
            "@type": "Property",
            "term": {
              "@type": "Term",
              "@id": "ligninContent",
              "termType": "property"
            },
            "value": 10
          }
        ]
      }
    ]
  }
]
