[
  {
    "term": {
      "@id": "n2OToAirNaturalVegetationBurningDirect",
      "@type": "Term"
    },
    "value": [
      0.282
    ],
    "methodTier": "tier 1",
    "@type": "Emission",
    "methodModel": {
      "@type": "Term",
      "@id": "blonkConsultants2016"
    }
  }
]
