[
  {
    "@type": "Product",
    "term": {
      "@type": "Term",
      "@id": "aboveGroundCropResidueRemoved"
    },
    "value": [
      741.4343
    ],
    "model": {
      "@type": "Term",
      "@id": "koble2014"
    }
  },
  {
    "@type": "Product",
    "term": {
      "@type": "Term",
      "@id": "aboveGroundCropResidueIncorporated"
    },
    "value": [
      741.4343
    ],
    "model": {
      "@type": "Term",
      "@id": "koble2014"
    }
  },
  {
    "@type": "Product",
    "term": {
      "@type": "Term",
      "@id": "aboveGroundCropResidueBurnt"
    },
    "value": [
      0
    ],
    "economicValueShare": 0,
    "revenue": 0,
    "currency": "USD",
    "model": {
      "@type": "Term",
      "@id": "koble2014"
    }
  },
  {
    "@type": "Product",
    "term": {
      "@type": "Term",
      "@id": "aboveGroundCropResidueLeftOnField"
    },
    "value": [
      1482.8686000000002
    ],
    "model": {
      "@type": "Term",
      "@id": "koble2014"
    }
  }
]
