[
  {
    "@type": "Product",
    "term": {
      "@type": "Term",
      "@id": "meatChickenColdCarcassWeight",
      "name": "Meat, chicken (cold carcass weight)",
      "termType": "animalProduct",
      "units": "kg cold carcass weight",
      "defaultProperties": [
        {
          "term": {
            "@type": "Term",
            "termType": "property",
            "@id": "processingConversionColdCarcassWeightToReadyToCookWeight",
            "units": "%"
          },
          "value": 72.45065789473684,
          "sd": 3.605314180391945,
          "@type": "Property"
        }
      ]
    },
    "primary": true,
    "properties": [
      {
        "@type": "Property",
        "term": {
          "@type": "Term",
          "@id": "coldCarcassWeightPerHead"
        },
        "value": 2.0892933726031884,
        "methodModel": {
          "@type": "Term",
          "@id": "faostat2018"
        }
      }
    ]
  }
]
