[
  {
    "@type": "Product",
    "term": {
      "@id": "aboveGroundCropResidueTotal",
      "@type": "Term"
    },
    "value": [
      3485.2172
    ],
    "model": {
      "@type": "Term",
      "@id": "ipcc2006"
    }
  }
]
