{
  "@type": "Indicator",
  "term": {
    "@type": "Term",
    "@id": "damageToMarineEcosystemsMarineEutrophication"
  },
  "methodModel": {
    "@type": "Term",
    "@id": "lcImpactCertainEffects100Years"
  },
  "value": 5.725712139919148e-17
}
