{
  "id": "fake-impact",
  "type": "ImpactAssessment",
  "allocationMethod": "none required",
  "country": {
    "@id": "GADM-NPL",
    "@type": "Term",
    "name": "Nepal"
  },
  "site": {
    "id": "fake-site",
    "type": "Site",
    "siteType": "cropland"
  },
  "emissionsResourceUse": [
    {
      "@type": "Indicator",
      "term": {
        "@id": "landTransformationFromForest20YearAverageDuringCycle",
        "@type": "Term",
        "name": "Land transformation, from forest, 20 year average, during Cycle",
        "termType": "resourceUse",
        "units": "m2*year"
      },
      "value": 10
    }
  ],
  "endDate": "2010",
  "functionalUnitQuantity": 1,
  "product": {
    "@type": "Product",
    "term": {
      "@id": "wheatGrain",
      "@type": "Term",
      "termType": "crop"
    }
  },
  "source": {
    "id": "fake-source",
    "type": "Source"
  },
  "dataPrivate": false
}
