[
  {
    "@type": "Input",
    "term": {
      "@type": "Term",
      "@id": "seed"
    },
    "value": [
      35.52483599999999
    ],
    "model": {
      "@type": "Term",
      "@id": "faostat2018"
    }
  }
]
