[
  {
    "@type": "Emission",
    "term": {
      "@type": "Term",
      "@id": "ch4ToAirAquacultureSystems"
    },
    "methodModel": {
      "@type": "Term",
      "@id": "pooreNemecek2018"
    },
    "value": [
      0.03356324351355151
    ],
    "methodTier": "tier 1"
  }
]
