[
  {
    "term": {
      "@id": "_term_id_",
      "@type": "Term"
    },
    "value": [

    ],
    "@type": "_return_type_",
    "methodModel": {
      "@type": "Term",
      "@id": "_model_"
    },
    "statsDefinition": "modelled"
  }
]
