{
  "id": "fake-site",
  "type": "Site",
  "defaultSource": {
    "id": "olcc1ydvrt",
    "type": "Source"
  },
  "dataPrivate": false,
  "name": "Field -11.77, -45.72",
  "country": {
    "@id": "GADM-BRA",
    "@type": "Term",
    "name": "Brazil"
  },
  "siteType": "sea or ocean",
  "measurements": []
}
