{
  "id": "fake-cycle",
  "type": "Cycle",
  "name": "fake cycle",
  "dataPrivate": false,
  "functionalUnit": "1 ha",
  "endDate": "2012",
  "cycleDuration": 365,
  "defaultSource": {
    "id": "fake-source",
    "type": "Source"
  },
  "site": {
    "id": "fake-site",
    "type": "Site",
    "siteType": "cropland"
  },
  "products": [
    {
      "term": {
        "@id": "maizeGrain",
        "@type": "Term",
        "termType": "crop"
      },
      "value": [
        1000
      ],
      "properties": [
        {
          "term": {
            "@id": "dryMatter",
            "@type": "Term",
            "units": "%"
          },
          "value": 85.8,
          "@type": "Property"
        }
      ],
      "@type": "Product"
    },
    {
      "@type": "Product",
      "term": {
        "@type": "Term",
        "@id": "pigeonPeaSeedWhole",
        "termType": "crop"
      },
      "value": [
        1000
      ],
      "properties": [
        {
          "@type": "Property",
          "term": {
            "@type": "Term",
            "@id": "dryMatter",
            "units": "%"
          },
          "value": 89.2
        }
      ]
    },
    {
      "@type": "Product",
      "term": {
        "@id": "aboveGroundCropResidueTotal",
        "@type": "Term",
        "termType": "cropResidue"
      }
    },
    {
      "@type": "Product",
      "term": {
        "@id": "belowGroundCropResidue",
        "@type": "Term",
        "termType": "cropResidue"
      }
    }
  ],
  "completeness": {
    "@type": "Completeness",
    "electricityFuel": true,
    "material": true,
    "fertiliser": true,
    "other": true,
    "pesticidesAntibiotics": true,
    "soilAmendments": true,
    "water": true,
    "products": true,
    "cropResidue": true,
    "animalFeed": true,
    "transport": false,
    "excreta": true,
    "waste": true,
    "liveAnimals": true,
    "operations": true
  },
  "defaultMethodClassification": "modelled",
  "defaultMethodClassificationDescription": "description"
}
