[
  {
    "term": {
      "@id": "ch4ToAirEntericFermentation",
      "@type": "Term"
    },
    "value": [
      0.001768542715278763
    ],
    "methodTier": "tier 2",
    "@type": "Emission",
    "methodModel": {
      "@type": "Term",
      "@id": "ipcc2019"
    }
  }
]
