[
  {
    "@type": "Product",
    "term": {
      "@type": "Term",
      "@id": "pig",
      "termType": "liveAnimal",
      "units": "number"
    },
    "value": [
      1
    ],
    "price": 205.2175,
    "currency": "USD"
  }
]
