{
  "id": "fake-cycle",
  "type": "Cycle",
  "name": "cycle",
  "dataPrivate": true,
  "functionalUnit": "1 ha",
  "endDate": "2009",
  "cycleDuration": 365,
  "site": {
    "id": "fake-site",
    "type": "Site",
    "siteType": "cropland",
    "country": {
      "@id": "GADM-NPL",
      "@type": "Term",
      "name": "Nepal",
      "termType": "region"
    }
  },
  "products": [
    {
      "term": {
        "@id": "wheatGrain",
        "@type": "Term",
        "name": "Wheat, grain",
        "units": "kg",
        "termType": "crop"
      },
      "primary": true,
      "@type": "Product"
    }
  ],
  "completeness": {
    "@type": "Completeness",
    "electricityFuel": true,
    "material": true,
    "fertiliser": true,
    "other": true,
    "soilAmendments": true,
    "pesticidesAntibiotics": true,
    "water": true,
    "products": true,
    "cropResidue": false,
    "animalFeed": false,
    "transport": false,
    "excreta": true,
    "waste": true,
    "liveAnimals": true,
    "operations": true
  },
  "defaultMethodClassification": "modelled",
  "defaultMethodClassificationDescription": "description"
}
