{
  "@type": "Indicator",
  "term": {
    "@type": "Term",
    "@id": "damageToTerrestrialEcosystemsLandTransformation"
  },
  "methodModel": {
    "@type": "Term",
    "@id": "chaudharyBrooks2018"
  },
  "value": 7.14464264406028e-10
}
