[
  {
    "@type": "Emission",
    "term": {
      "@type": "Term",
      "@id": "n2OToAirInorganicFertiliserIndirect"
    },
    "methodModel": {
      "@type": "Term",
      "@id": "ipcc2019"
    },
    "value": [
      0.15458780058890922
    ],
    "min": [
      0
    ],
    "max": [
      0.3091454896314324
    ],
    "sd": [
      0.0772863724078581
    ],
    "statsDefinition": "modelled",
    "methodTier": "tier 1"
  }
]
