[
  {
    "term": {
      "@id": "n2OToAirExcretaDirect",
      "@type": "Term"
    },
    "value": [
      2.1995502248875565
    ],
    "methodTier": "tier 1",
    "@type": "Emission",
    "methodModel": {
      "@type": "Term",
      "@id": "ipcc2006"
    }
  }
]
