[
  {
    "term": {
      "@id": "eggsHenInShell",
      "name": "Eggs, hen, in shell",
      "@type": "Term",
      "termType": "animalProduct",
      "units": "kg"
    },
    "primary": true,
    "value": [
      10
    ],
    "@type": "Product",
    "price": 2.4171,
    "currency": "USD"
  }
]
