{
  "@type": "Indicator",
  "term": {
    "@type": "Term",
    "@id": "gwp100"
  },
  "methodModel": {
    "@type": "Term",
    "@id": "ipcc2013ExcludingFeedbacks"
  },
  "value": 0.5107015359531284
}
