{
  "@type": "Indicator",
  "term": {
    "@type": "Term",
    "@id": "ozoneDepletionPotential"
  },
  "methodModel": {
    "@type": "Term",
    "@id": "recipe2016Hierarchist"
  },
  "value": 0.000003954270915523509
}
