[
  {
    "term": {
      "@id": "landTransformationFromPermanentPasture20YearAverageDuringCycle",
      "@type": "Term"
    },
    "value": 4.280113379310345,
    "@type": "Indicator",
    "methodModel": {
      "@type": "Term",
      "@id": "hyde32"
    }
  }
]
